{
  "profiles": {
    "web-dotnetcore31": {
      "commandName": "Project",
      "commandLineArgs": "run-web",
      "environmentVariables": {
        "JWT_ISSUER": "https://auth.tiki-dsp.io/auth/realms/tiki",
        "DSP_WEB_DEPLOYMENT_PATH": "/ai-examples/dotnetcore-dev/web-dotnetcore31/",
        "OAUTH_CLIENT_ID": "ai-examples-dotnetcore-dev-web-dotnetcore31"
      }
    },
    "web-dotnetcore31-withEnvironmentalConfiguration": {
      "commandName": "Project",
      "commandLineArgs": "run-web",
      "environmentVariables": {
        "JWT_ISSUER": "https://auth.tiki-dsp.io/auth/realms/tiki",
        "DSP_WEB_DEPLOYMENT_PATH": "/ai-examples/dotnetcore-dev/web-dotnetcore31/",
        "OAUTH_CLIENT_ID": "ai-examples-dotnetcore-dev-web-dotnetcore31",
        "AI_EXAMPLE_DOTNET_CORE_AiExampleDotnetCore__EnvironmentConfigurationController__StringValue": "changed value with ENV VARS (IntValue should be 4712 now)",
        "AI_EXAMPLE_DOTNET_CORE_AiExampleDotnetCore__EnvironmentConfigurationController__IntValue": "4712"
      }
    }
  }
}